{
    "urls": [
        {
            "url": "",
            "name": "🐊🐊接口更新7.11🐊🐊"
        },
        {
            "url": "",
            "name": "🍀此接口免费禁止贩卖🍀"
        },
        {
            "url": "http://www.饭太硬.com/tv",
            "name": "🚀饭太硬推荐"
        },
        {
            "url": "http://肥猫.com/",
            "name": "🚀肥猫线路"
        },
        {
            "url": "https://github.moeyy.xyz/https://raw.githubusercontent.com/PizazzGY/TVBox/main/api.json",
            "name": "🚀酷安潇洒哥线路"
        },
        {
            "url": "https://mirror.ghproxy.com/https://raw.githubusercontent.com/guot55/YGBH/main/vip2.json",
            "name": "🚀宝盒线路"
        },
        {
            "url": "https://gh.xxooo.cf/https://raw.githubusercontent.com//yydfys/yydf/main/XYQTVBox/xyq.json",
            "name": "🚀香雅情镜像线路"
        },
        {
            "url": "http://itvbox.cc/云星日记",
            "name": "🚀云星日记线路"
        },
        {
            "url": "https://gitdl.cn/raw.githubusercontent.com/gaotianliuyun/gao/master/0827.json",
            "name": "🚀FongMI线路"
        },
        {
            "url": "http://pandown.pro/tvbox/tvbox.json",
            "name": "🚀巧计线路"
        },
        {
            "url": "https://weixine.net/ysc.json",
            "name": "🚀运输车路"
        },
        {
            "url": "https://100km.top/0",
            "name": "🚀骚 0线路"
        },
        {
            "url": "https://gitdl.cn/raw.githubusercontent.com/gaotianliuyun/gao/master/js.json",
            "name": "🚀高天流云js"
        },
        {
            "url": "https://gitdl.cn/raw.githubusercontent.com/gaotianliuyun/gao/master/XYQ.json",
            "name": "🚀高天流云 XYQ"
        },
        {
            "url": "http://www.lyyytv.cn/yt/yt.json",
            "name": "🚀影探线路"
        },
        {
            "url": "http://dxawi.github.io/0/0.json",
            "name": "🚀dxawi线路"
        }
    ]
}